{
  "users": [
    {
      "email": "user@mail.com",
      "password": "$2a$10$ODvpqUdoWSlWf3wwTCaBvOOgFQrnShM6CSmbpYY.f1d0xCxzXvrI6",
      "username": "user",
      "firstname": "John",
      "lastname": "Doe",
      "role": "user",
      "id": 2
    },
    {
      "email": "admin@mail.com",
      "password": "$2a$10$.I/BerC6N/iyfCnU2UHUVOXMLnmW0uXuD/EIHZH1vctsVZsbZqZuy",
      "username": "admin",
      "firstname": "Admin",
      "lastname": "Admin",
      "role": "admin",
      "id": 3
    },
    {
      "email": "reviewer@mail.com",
      "password": "$2a$10$7WfOiUS6pEkl.kTzpzGZhudoxTKriQabIOBy56oVffN86OXMt1x.6",
      "username": "reviewer",
      "firstname": "The",
      "lastname": "Reviewer",
      "role": "reviewer",
      "id": 4
    },
    {
      "email": "t@mail.com",
      "password": "$2a$10$3BuQoAeui2hSzrre06Nc2ekB5xRFh0eoV6elO9J11BKq9ZufFuhTG",
      "firstname": "N/A",
      "lastname": "N/A",
      "role": "user",
      "id": 5
    },
    {
      "email": "super@mail.com",
      "password": "$2a$10$wZXlk0xS0cNX8mddZ0jN2OxC2Fzyh2jkn2c1xYO2j7WKyycyo0jei",
      "firstName": "Super",
      "lastName": "User",
      "role": "user",
      "id": 6
    }
  ],
  "watchlist": [
    {
      "userId": 3,
      "movieId": 31,
      "id": 1
    },
    {
      "userId": 2,
      "movieId": 1,
      "id": 2
    },
    {
      "id": 4,
      "userId": 2,
      "movieId": 5
    },
    {
      "movieId": 14,
      "userId": "2",
      "id": 5
    }
  ],
  "reviews": [
    {
      "movieId": 1,
      "rating": 5,
      "userId": 4,
      "createdOn": "10/20/2020",
      "createdBy": "The Reviewer",
      "reviewTitle": "Great Movie",
      "reviewComment": "Decent enough animated movie that, even though its another origin for the Man of Steel, didn't feel stale and has a good enough story and fun side characters including Martian Manhunter and Lobo, the latter hopefully will show up in future animated movies in this new animated universe. The voice acting was okay, still not sure about Darren Criss as Clark/Superman but did like Zachary Quinto's Lex Luthor. Also the animation and design will take some getting used to as I did enjoy the New 52 designs of the last animated universe of films",
      "id": 1
    },
    {
      "movieId": 1,
      "rating": 3,
      "userId": 4,
      "createdOn": "10/19/2020",
      "createdBy": "The Reviewer",
      "reviewTitle": "Not bad",
      "reviewComment": "Decent enough animated movie that, even though its another origin for the Man of Steel, didn't feel stale and has a good enough story and fun side characters including Martian Manhunter and Lobo, the latter hopefully will show up in future animated movies in this new animated universe. The voice acting was okay, still not sure about Darren Criss as Clark/Superman but did like Zachary Quinto's Lex Luthor. Also the animation and design will take some getting used to as I did enjoy the New 52 designs of the last animated universe of films",
      "id": 2
    },
    {
      "rating": "3",
      "createdOn": "10/17/2020",
      "createdBy": "John Doe",
      "reviewTitle": "tet",
      "reviewComment": "test tewt tewte etewt tewtetewtewtewtetwet",
      "userId": 4,
      "movieId": "1",
      "id": 3
    },
    {
      "rating": "3",
      "createdOn": "10/20/2020",
      "createdBy": "John Doe",
      "reviewTitle": "test",
      "reviewComment": "test",
      "userId": 4,
      "movieId": 14,
      "id": 5
    },
    {
      "rating": 5,
      "createdOn": "10/20/2020",
      "createdBy": "John Doe",
      "reviewTitle": "panda",
      "reviewComment": "panda\ngegeg+\ngewgeg",
      "userId": 4,
      "movieId": 9,
      "id": 6
    },
    {
      "rating": 3.5,
      "createdOn": "10/20/2020",
      "createdBy": "John Doe",
      "reviewTitle": "overall good",
      "reviewComment": "A bit slow but overall good. There are many sub plots in the movie that could've been made into independent movies of their own.",
      "userId": 4,
      "movieId": 2,
      "id": 7
    },
    {
      "rating": 5,
      "createdOn": "10/20/2020",
      "createdBy": "John Doe",
      "reviewTitle": "Short review",
      "reviewComment": "Batman has been hit hard by the events of Man of Steel : a \"god\" descends on earth, is confronted by another god, and they fight, killing thousands of humans. He learns about a rock coming from his birth planet that can weaken or kill him. It's the property of Lex Luthor, who could target Superman too, but with evil purpose.",
      "userId": 4,
      "movieId": 2,
      "id": 8
    },
    {
      "rating": "1",
      "createdOn": "10/20/2020",
      "createdBy": "John Doe",
      "reviewTitle": "Fun to laugh but terrible",
      "reviewComment": "Batman & Robin is fun in exactly one way: Fun to laugh at. It's terrible, God is it terrible, but it's terrible in that right kind of way. Doesn't stop it from being terrible, but does make it worth watching.",
      "userId": 4,
      "movieId": 6,
      "id": 9
    }
  ],
  "movies": [
    {
      "Title": "Batman Begins",
      "Year": "2005",
      "imdbID": "tt0372784",
      "Type": "movie",
      "Video": "https://youtu.be/qpoxHvmWPfc",
      "Overview": "Driven by tragedy, billionaire Bruce Wayne dedicates his life to uncovering and defeating the corruption that plagues his home, Gotham City. Unable to work within the system, he instead creates a new identity, a symbol of fear for the criminal underworld - The Batman.",
      "Poster": "https://m.media-amazon.com/images/M/MV5BOTY4YjI2N2MtYmFlMC00ZjcyLTg3YjEtMDQyM2ZjYzQ5YWFkXkEyXkFqcGdeQXVyMTQxNzMzNDI@._V1_SX300.jpg",
      "id": 1
    },
    {
      "id": 2,
      "Title": "Batman v Superman: Dawn of Justice",
      "Year": "2016",
      "imdbID": "tt2975590",
      "Type": "movie",
      "Video": "https://youtu.be/qpoxHvmWPfc",
      "Overview": "Fearing the actions of a god-like Super Hero left unchecked, Gotham City’s own formidable, forceful vigilante takes on Metropolis’s most revered, modern-day savior, while the world wrestles with what sort of hero it really needs. And with Batman and Superman at war with one another, a new threat quickly arises, putting mankind in greater danger than it’s ever known before.",
      "Poster": "https://m.media-amazon.com/images/M/MV5BYThjYzcyYzItNTVjNy00NDk0LTgwMWQtYjMwNmNlNWJhMzMyXkEyXkFqcGdeQXVyMTQxNzMzNDI@._V1_SX300.jpg"
    },
    {
      "id": 3,
      "Title": "Batman",
      "Year": "1989",
      "imdbID": "tt0096895",
      "Type": "movie",
      "Overview": "Having witnessed his parents' brutal murder as a child, millionaire philanthropist Bruce Wayne fights crime in Gotham City disguised as Batman, a costumed hero who strikes fear into the hearts of villains. But when a deformed madman who calls himself The Joker seizes control of Gotham's criminal underworld, Batman must face his most ruthless nemesis ever while protecting both his identity and his love interest, reporter Vicki Vale.",
      "Poster": "https://m.media-amazon.com/images/M/MV5BMTYwNjAyODIyMF5BMl5BanBnXkFtZTYwNDMwMDk2._V1_SX300.jpg"
    },
    {
      "id": 4,
      "Title": "Batman Returns",
      "Year": "1992",
      "imdbID": "tt0103776",
      "Type": "movie",
      "Overview": "Having defeated the Joker, Batman now faces the Penguin—a warped and deformed individual who is intent on being accepted into Gotham society, with the help of Max Schreck, a crooked businessman, whom he coerces into helping him run for the position of Mayor of Gotham, while they both attempt to frame Batman in a different light. Batman must attempt to clear his name, all while also deciding just what must be done with the mysterious Catwoman slinking about.",
      "Poster": "https://m.media-amazon.com/images/M/MV5BOGZmYzVkMmItM2NiOS00MDI3LWI4ZWQtMTg0YWZkODRkMmViXkEyXkFqcGdeQXVyODY0NzcxNw@@._V1_SX300.jpg"
    },
    {
      "id": 5,
      "Title": "Batman Forever",
      "Year": "1995",
      "imdbID": "tt0112462",
      "Type": "movie",
      "Overview": "",
      "Poster": "https://m.media-amazon.com/images/M/MV5BNDdjYmFiYWEtYzBhZS00YTZkLWFlODgtY2I5MDE0NzZmMDljXkEyXkFqcGdeQXVyMTMxODk2OTU@._V1_SX300.jpg"
    },
    {
      "id": 6,
      "Title": "Batman & Robin",
      "Year": "1997",
      "imdbID": "tt0118688",
      "Type": "movie",
      "Overview": "",
      "Poster": "https://m.media-amazon.com/images/M/MV5BMGQ5YTM1NmMtYmIxYy00N2VmLWJhZTYtN2EwYTY3MWFhOTczXkEyXkFqcGdeQXVyNTA2NTI0MTY@._V1_SX300.jpg"
    },
    {
      "id": 7,
      "Title": "The Lego Batman Movie",
      "Year": "2017",
      "imdbID": "tt4116284",
      "Type": "movie",
      "Overview": "",
      "Poster": "https://m.media-amazon.com/images/M/MV5BMTcyNTEyOTY0M15BMl5BanBnXkFtZTgwOTAyNzU3MDI@._V1_SX300.jpg"
    },
    {
      "id": 8,
      "Title": "Batman: The Animated Series",
      "Year": "1992–1995",
      "imdbID": "tt0103359",
      "Type": "series",
      "Overview": "",
      "Poster": "https://m.media-amazon.com/images/M/MV5BOTM3MTRkZjQtYjBkMy00YWE1LTkxOTQtNDQyNGY0YjYzNzAzXkEyXkFqcGdeQXVyOTgwMzk1MTA@._V1_SX300.jpg"
    },
    {
      "id": 9,
      "Title": "Batman: Under the Red Hood",
      "Year": "2010",
      "imdbID": "tt1569923",
      "Type": "movie",
      "Overview": "",
      "Poster": "https://m.media-amazon.com/images/M/MV5BNmY4ZDZjY2UtOWFiYy00MjhjLThmMjctOTQ2NjYxZGRjYmNlL2ltYWdlL2ltYWdlXkEyXkFqcGdeQXVyNTAyODkwOQ@@._V1_SX300.jpg"
    },
    {
      "id": 10,
      "Title": "Batman: The Dark Knight Returns, Part 1",
      "Year": "2012",
      "imdbID": "tt2313197",
      "Type": "movie",
      "Overview": "",
      "Poster": "https://m.media-amazon.com/images/M/MV5BMzIxMDkxNDM2M15BMl5BanBnXkFtZTcwMDA5ODY1OQ@@._V1_SX300.jpg"
    },
    {
      "id": 11,
      "Title": "Kung Fu Panda",
      "Year": "2008",
      "imdbID": "tt0441773",
      "Type": "movie",
      "Overview": "When the Valley of Peace is threatened, lazy Po the panda discovers his destiny as the chosen one and trains to become a kung fu hero, but transforming the unsleek slacker into a brave warrior won't be easy. It's up to Master Shifu and the Furious Five -- Tigress, Crane, Mantis, Viper and Monkey -- to give it a try.",
      "Poster": "https://m.media-amazon.com/images/M/MV5BODJkZTZhMWItMDI3Yy00ZWZlLTk4NjQtOTI1ZjU5NjBjZTVjXkEyXkFqcGdeQXVyODE5NzE3OTE@._V1_SX300.jpg"
    },
    {
      "id": 12,
      "Title": "Kung Fu Panda 2",
      "Year": "2011",
      "imdbID": "tt1302011",
      "Type": "movie",
      "Overview": "Po is now living his dream as The Dragon Warrior, protecting the Valley of Peace alongside his friends and fellow kung fu masters, The Furious Five - Tigress, Crane, Mantis, Viper and Monkey. But Po’s new life of awesomeness is threatened by the emergence of a formidable villain, who plans to use a secret, unstoppable weapon to conquer China and destroy kung fu. It is up to Po and The Furious Five to journey across China to face this threat and vanquish it. But how can Po stop a weapon that can stop kung fu? He must look to his past and uncover the secrets of his mysterious origins; only then will he be able to unlock the strength he needs to succeed.",
      "Poster": "https://m.media-amazon.com/images/M/MV5BYzQ0ZWIxZjAtYWI3Yy00MGM0LWFjOGYtNzcyYThiOTA3ODI1XkEyXkFqcGdeQXVyODE5NzE3OTE@._V1_SX300.jpg"
    },
    {
      "id": 13,
      "Title": "Kung Fu Panda 3",
      "Year": "2016",
      "imdbID": "tt2267968",
      "Type": "movie",
      "Overview": "Continuing his 'legendary adventures of awesomeness', Po must face two hugely epic, but different threats: one supernatural and the other a little closer to his home.",
      "Poster": "https://m.media-amazon.com/images/M/MV5BMTUyNzgxNjg2M15BMl5BanBnXkFtZTgwMTY1NDI1NjE@._V1_SX300.jpg"
    },
    {
      "id": 14,
      "Title": "Kung Fu Panda: Secrets of the Furious Five",
      "Year": "2008",
      "imdbID": "tt1287845",
      "Type": "movie",
      "Overview": "",
      "Poster": "https://m.media-amazon.com/images/M/MV5BMjQwMWNmYWUtY2E5NS00OTlkLWI2Y2MtNzhjZDUyYmZhZDVjXkEyXkFqcGdeQXVyNjc2MjYzMTY@._V1_SX300.jpg"
    },
    {
      "id": 15,
      "Title": "Kung Fu Panda Holiday",
      "Year": "2010",
      "imdbID": "tt1702433",
      "Type": "movie",
      "Overview": "The Winter Feast is Po's favorite holiday. Every year he and his father hang decorations, cook together, and serve noodle soup to the villagers. But this year Shifu informs Po that as Dragon Warrior, it is his duty to host the formal Winter Feast at the Jade Palace. Po is caught between his obligations as the Dragon Warrior and his family traditions: between Shifu and Mr. Ping.",
      "Poster": "https://m.media-amazon.com/images/M/MV5BMDg4YTg2MDktYjBmMi00ZTE5LTliZTktNGZmN2JkYmM0YzEwXkEyXkFqcGdeQXVyODMxNzcyNDI@._V1_SX300.jpg"
    },
    {
      "id": 16,
      "Title": "Kung Fu Panda: Legends of Awesomeness",
      "Year": "2011–2016",
      "imdbID": "tt1545214",
      "Type": "series",
      "Overview": "",
      "Poster": "https://m.media-amazon.com/images/M/MV5BMDI1NTY5MzEtNDgyMy00MGQ5LWFkODAtNTdiZmNiOGQ1ZmFkXkEyXkFqcGdeQXVyNDgyODgxNjE@._V1_SX300.jpg"
    },
    {
      "id": 17,
      "Title": "The Amazing Panda Adventure",
      "Year": "1995",
      "imdbID": "tt0112342",
      "Type": "movie",
      "Overview": "Far from home in the lush bamboo forests of China, ten-year-old Ryan Tyler, with the help of a young girl, goes on a wonderful journey to rescue a baby panda taken by poachers.",
      "Poster": "https://m.media-amazon.com/images/M/MV5BZmUyZWJmZDktMjE0Yy00MjUwLTlmMmUtNTk0YjFkODUxZTVkXkEyXkFqcGdeQXVyNzc5MjA3OA@@._V1_SX300.jpg"
    },
    {
      "id": 18,
      "Title": "Kung Fu Panda: Secrets of the Masters",
      "Year": "2011",
      "imdbID": "tt1980162",
      "Type": "movie",
      "Overview": "",
      "Poster": "https://m.media-amazon.com/images/M/MV5BNjZmMWU3NDgtYTQ0MC00YzdlLTg0YWUtMDRkMTVlMzhhYTRlXkEyXkFqcGdeQXVyNDgyODgxNjE@._V1_SX300.jpg"
    },
    {
      "id": 19,
      "Title": "The Adventure of Panda and Friends: Panda Family!",
      "Year": "1972",
      "imdbID": "tt0069058",
      "Type": "movie",
      "Overview": "",
      "Poster": "https://m.media-amazon.com/images/M/MV5BZjdiMGYwMjgtNjdmZC00ZjdkLThhMjgtMjBhZTQzMzE5MGM2XkEyXkFqcGdeQXVyNzMwOTY2NTI@._V1_SX300.jpg"
    },
    {
      "id": 20,
      "Title": "Kung Fu Panda: Secrets of the Scroll",
      "Year": "2016",
      "imdbID": "tt5513770",
      "Type": "movie",
      "Overview": "",
      "Poster": "https://m.media-amazon.com/images/M/MV5BOTA2ZmJjNDUtOWJjZC00ZWY5LTg1MGUtODMzODVkZmIyYTE1XkEyXkFqcGdeQXVyNjIzODI5OTQ@._V1_SX300.jpg"
    },
    {
      "id": 21,
      "Title": "Italian Spiderman",
      "Year": "2007",
      "imdbID": "tt2705436",
      "Type": "movie",
      "Overview": "",
      "Poster": "https://m.media-amazon.com/images/M/MV5BYjFhN2RjZTctMzA2Ni00NzE2LWJmYjMtNDAyYTllOTkyMmY3XkEyXkFqcGdeQXVyNTA0OTU0OTQ@._V1_SX300.jpg"
    },
    {
      "id": 22,
      "Title": "Superman, Spiderman or Batman",
      "Year": "2011",
      "imdbID": "tt2084949",
      "Type": "movie",
      "Overview": "",
      "Poster": "https://m.media-amazon.com/images/M/MV5BMjQ4MzcxNDU3N15BMl5BanBnXkFtZTgwOTE1MzMxNzE@._V1_SX300.jpg"
    },
    {
      "id": 23,
      "Title": "Spiderman",
      "Year": "1990",
      "imdbID": "tt0100669",
      "Type": "movie",
      "Overview": "",
      "Poster": "N/A"
    },
    {
      "id": 24,
      "Title": "Spiderman",
      "Year": "2010",
      "imdbID": "tt1785572",
      "Type": "movie",
      "Overview": "",
      "Poster": "N/A"
    },
    {
      "id": 25,
      "Title": "Fighting, Flying and Driving: The Stunts of Spiderman 3",
      "Year": "2007",
      "imdbID": "tt1132238",
      "Type": "movie",
      "Overview": "",
      "Poster": "https://m.media-amazon.com/images/M/MV5BNTI3NDE1ZmEtMTRiMS00YTY4LTk0OGItNjY4YmI0MDM4OGM4XkEyXkFqcGdeQXVyODE2NDgwMzM@._V1_SX300.jpg"
    },
    {
      "id": 26,
      "Title": "Spiderman and Grandma",
      "Year": "2009",
      "imdbID": "tt1433184",
      "Type": "movie",
      "Overview": "",
      "Poster": "https://m.media-amazon.com/images/M/MV5BMjE3Mzg0MjAxMl5BMl5BanBnXkFtZTcwNjIyODg5Mg@@._V1_SX300.jpg"
    },
    {
      "id": 27,
      "Title": "The Amazing Spiderman T4 Premiere Special",
      "Year": "2012",
      "imdbID": "tt2233044",
      "Type": "movie",
      "Overview": "",
      "Poster": "N/A"
    },
    {
      "id": 28,
      "Title": "Amazing Spiderman Syndrome",
      "Year": "2012",
      "imdbID": "tt2586634",
      "Type": "movie",
      "Overview": "",
      "Poster": "N/A"
    },
    {
      "id": 29,
      "Title": "Hollywood's Master Storytellers: Spiderman Live",
      "Year": "2006",
      "imdbID": "tt2158533",
      "Type": "movie",
      "Overview": "",
      "Poster": "N/A"
    },
    {
      "id": 30,
      "Title": "Spiderman 5",
      "Year": "2008",
      "imdbID": "tt3696826",
      "Type": "movie",
      "Overview": "",
      "Poster": "N/A"
    },
    {
      "Title": "Batman v Superman: Dawn of Justice",
      "Year": "2016",
      "imdbID": "tt2975590",
      "Type": "movie",
      "Overview": "",
      "Video": "https://youtu.be/qpoxHvmWPfc",
      "Poster": "https://m.media-amazon.com/images/M/MV5BYThjYzcyYzItNTVjNy00NDk0LTgwMWQtYjMwNmNlNWJhMzMyXkEyXkFqcGdeQXVyMTQxNzMzNDI@._V1_SX300.jpg",
      "id": 31
    }
  ]
}